EESchema Schematic File Version 4
EELAYER 30 0
EELAYER END
$Descr A4 11693 8268
encoding utf-8
Sheet 1 1
Title ""
Date ""
Rev ""
Comp ""
Comment1 ""
Comment2 ""
Comment3 ""
Comment4 ""
$EndDescr
$Comp
L TL494_Board-rescue:TL494-Regulator_Controller U1
U 1 1 5D3E81C3
P 3200 3300
F 0 "U1" H 3200 4181 50  0000 C CNN
F 1 "TL494" H 3200 4090 50  0000 C CNN
F 2 "Package_DIP:DIP-16_W7.62mm_Socket_LongPads" H 3200 3300 50  0001 C CNN
F 3 "http://www.ti.com/lit/ds/symlink/tl494.pdf" H 3200 3300 50  0001 C CNN
	1    3200 3300
	1    0    0    -1  
$EndComp
$Comp
L power:GND #PWR0101
U 1 1 5D3E86EF
P 3200 3900
F 0 "#PWR0101" H 3200 3650 50  0001 C CNN
F 1 "GND" H 3205 3727 50  0000 C CNN
F 2 "" H 3200 3900 50  0001 C CNN
F 3 "" H 3200 3900 50  0001 C CNN
	1    3200 3900
	1    0    0    -1  
$EndComp
$Comp
L Device:C_Small C2
U 1 1 5D3E8E4E
P 2200 3950
F 0 "C2" H 2292 3996 50  0000 L CNN
F 1 "1n" H 2292 3905 50  0000 L CNN
F 2 "Capacitor_THT:C_Rect_L7.0mm_W2.0mm_P5.00mm" H 2200 3950 50  0001 C CNN
F 3 "~" H 2200 3950 50  0001 C CNN
	1    2200 3950
	1    0    0    -1  
$EndComp
Wire Wire Line
	2200 3850 2200 3700
$Comp
L power:GND #PWR0102
U 1 1 5D3E91E3
P 2200 4050
F 0 "#PWR0102" H 2200 3800 50  0001 C CNN
F 1 "GND" H 2205 3877 50  0000 C CNN
F 2 "" H 2200 4050 50  0001 C CNN
F 3 "" H 2200 4050 50  0001 C CNN
	1    2200 4050
	1    0    0    -1  
$EndComp
$Comp
L Device:R R3
U 1 1 5D3E95FA
P 1900 3950
F 0 "R3" H 1970 3996 50  0000 L CNN
F 1 "5k" H 1970 3905 50  0000 L CNN
F 2 "Resistor_THT:R_Axial_DIN0204_L3.6mm_D1.6mm_P5.08mm_Horizontal" V 1830 3950 50  0001 C CNN
F 3 "~" H 1900 3950 50  0001 C CNN
	1    1900 3950
	1    0    0    -1  
$EndComp
Wire Wire Line
	1900 3800 1900 3600
$Comp
L power:GND #PWR0103
U 1 1 5D3E9BE8
P 1900 4100
F 0 "#PWR0103" H 1900 3850 50  0001 C CNN
F 1 "GND" H 1905 3927 50  0000 C CNN
F 2 "" H 1900 4100 50  0001 C CNN
F 3 "" H 1900 4100 50  0001 C CNN
	1    1900 4100
	1    0    0    -1  
$EndComp
Text GLabel 1700 1600 1    50   Input ~ 0
REF
Connection ~ 1700 3300
$Comp
L Device:CP_Small C1
U 1 1 5D3EBF75
P 1050 3300
F 0 "C1" V 950 3450 50  0000 C CNN
F 1 "2.5u" V 950 3300 50  0000 C CNN
F 2 "Capacitor_THT:C_Disc_D4.3mm_W1.9mm_P5.00mm" H 1050 3300 50  0001 C CNN
F 3 "~" H 1050 3300 50  0001 C CNN
	1    1050 3300
	0    1    1    0   
$EndComp
$Comp
L Device:R R2
U 1 1 5D3EE2D5
P 1050 3050
F 0 "R2" V 1250 3050 50  0000 C CNN
F 1 "10k" V 1150 3050 50  0000 C CNN
F 2 "Resistor_THT:R_Axial_DIN0204_L3.6mm_D1.6mm_P5.08mm_Horizontal" V 980 3050 50  0001 C CNN
F 3 "~" H 1050 3050 50  0001 C CNN
	1    1050 3050
	0    1    -1   0   
$EndComp
Wire Wire Line
	1150 3300 1350 3300
Wire Wire Line
	850  3300 950  3300
Connection ~ 850  3400
Wire Wire Line
	850  3400 850  3300
$Comp
L Device:R R1
U 1 1 5D3EFD64
P 850 3800
F 0 "R1" H 920 3846 50  0000 L CNN
F 1 "1k" H 920 3755 50  0000 L CNN
F 2 "Resistor_THT:R_Axial_DIN0204_L3.6mm_D1.6mm_P5.08mm_Horizontal" V 780 3800 50  0001 C CNN
F 3 "~" H 850 3800 50  0001 C CNN
	1    850  3800
	1    0    0    -1  
$EndComp
$Comp
L power:GND #PWR0104
U 1 1 5D3F03AC
P 850 3950
F 0 "#PWR0104" H 850 3700 50  0001 C CNN
F 1 "GND" H 855 3777 50  0000 C CNN
F 2 "" H 850 3950 50  0001 C CNN
F 3 "" H 850 3950 50  0001 C CNN
	1    850  3950
	1    0    0    -1  
$EndComp
$Comp
L Device:R_POT RV1
U 1 1 5D3F0BFF
P 1300 2550
F 0 "RV1" H 1231 2596 50  0000 R CNN
F 1 "V_THR" H 1231 2505 50  0000 R CNN
F 2 "Potentiometer_THT:Potentiometer_Bourns_3296W_Vertical" H 1300 2550 50  0001 C CNN
F 3 "~" H 1300 2550 50  0001 C CNN
	1    1300 2550
	1    0    0    -1  
$EndComp
$Comp
L Device:R_POT RV2
U 1 1 5D3F48E0
P 2000 2050
F 0 "RV2" H 1930 2096 50  0000 R CNN
F 1 "I_THR" H 1930 2005 50  0000 R CNN
F 2 "Potentiometer_THT:Potentiometer_Bourns_3296W_Vertical" H 2000 2050 50  0001 C CNN
F 3 "~" H 2000 2050 50  0001 C CNN
	1    2000 2050
	1    0    0    -1  
$EndComp
$Comp
L power:GND #PWR0105
U 1 1 5D3F57AF
P 1300 2700
F 0 "#PWR0105" H 1300 2450 50  0001 C CNN
F 1 "GND" H 1305 2527 50  0000 C CNN
F 2 "" H 1300 2700 50  0001 C CNN
F 3 "" H 1300 2700 50  0001 C CNN
	1    1300 2700
	1    0    0    -1  
$EndComp
$Comp
L power:GND #PWR0106
U 1 1 5D3F5ADA
P 2000 2200
F 0 "#PWR0106" H 2000 1950 50  0001 C CNN
F 1 "GND" H 2150 2200 50  0000 C CNN
F 2 "" H 2000 2200 50  0001 C CNN
F 3 "" H 2000 2200 50  0001 C CNN
	1    2000 2200
	1    0    0    -1  
$EndComp
Wire Wire Line
	1600 2550 1600 3100
Wire Wire Line
	1450 2550 1600 2550
Wire Wire Line
	1300 2400 1300 2300
Wire Wire Line
	1300 2300 1700 2300
Connection ~ 1700 2300
Wire Wire Line
	1700 2300 1700 3300
$Comp
L Device:R R5
U 1 1 5D3FB00F
P 2300 2800
F 0 "R5" V 2500 2700 50  0000 L CNN
F 1 "50k" V 2400 2700 50  0000 L CNN
F 2 "Resistor_THT:R_Axial_DIN0204_L3.6mm_D1.6mm_P5.08mm_Horizontal" V 2230 2800 50  0001 C CNN
F 3 "~" H 2300 2800 50  0001 C CNN
	1    2300 2800
	0    1    1    0   
$EndComp
Wire Wire Line
	2000 1700 1700 1700
Wire Wire Line
	2000 1700 2000 1900
Wire Wire Line
	1600 3100 2700 3100
Wire Wire Line
	850  3400 2700 3400
Wire Wire Line
	1900 3600 2700 3600
Wire Wire Line
	2200 3700 2700 3700
Wire Wire Line
	850  3400 850  3650
Wire Wire Line
	1200 3050 1350 3050
Wire Wire Line
	1350 3050 1350 3300
Connection ~ 1350 3300
Wire Wire Line
	1350 3300 1700 3300
Wire Wire Line
	900  3050 850  3050
Wire Wire Line
	850  3050 850  3300
Connection ~ 850  3300
Wire Wire Line
	2700 3500 1700 3500
Wire Wire Line
	1700 3500 1700 3300
Wire Wire Line
	3200 1800 3200 2600
Wire Wire Line
	3700 3100 3850 3100
Wire Wire Line
	3850 3100 3850 1800
Connection ~ 3850 1800
Wire Wire Line
	3700 3200 3850 3200
Wire Wire Line
	3850 3200 3850 3100
Connection ~ 3850 3100
Wire Wire Line
	2700 3000 2550 3000
Wire Wire Line
	2550 3000 2550 4300
$Comp
L Device:C_Small C3
U 1 1 5D3EFE76
P 4100 2000
F 0 "C3" H 4192 2046 50  0000 L CNN
F 1 "100n" H 4192 1955 50  0000 L CNN
F 2 "Capacitor_SMD:C_1206_3216Metric_Pad1.42x1.75mm_HandSolder" H 4100 2000 50  0001 C CNN
F 3 "~" H 4100 2000 50  0001 C CNN
	1    4100 2000
	1    0    0    -1  
$EndComp
$Comp
L power:GND #PWR0112
U 1 1 5D3F03D2
P 4100 2100
F 0 "#PWR0112" H 4100 1850 50  0001 C CNN
F 1 "GND" H 4105 1927 50  0000 C CNN
F 2 "" H 4100 2100 50  0001 C CNN
F 3 "" H 4100 2100 50  0001 C CNN
	1    4100 2100
	1    0    0    -1  
$EndComp
Wire Wire Line
	4100 1900 4100 1800
Wire Wire Line
	4100 1800 3850 1800
$Comp
L TL494_Board-rescue:HIP2100_SOIC-Driver_FET U3
U 1 1 5D8BCD6A
P 4750 3300
F 0 "U3" H 4750 3867 50  0000 C CNN
F 1 "HIP2100_SOIC" H 4750 3776 50  0000 C CNN
F 2 "Package_SO:SOIC-8_3.9x4.9mm_P1.27mm" H 4750 2800 50  0001 C CIN
F 3 "http://www.intersil.com/content/dam/Intersil/documents/hip2/hip2100.pdf" H 4750 2750 50  0001 C CNN
	1    4750 3300
	1    0    0    -1  
$EndComp
Wire Wire Line
	4450 3400 3700 3400
Wire Wire Line
	3700 3500 4450 3500
$Comp
L power:GND #PWR07
U 1 1 5D8BEA93
P 4350 3750
F 0 "#PWR07" H 4350 3500 50  0001 C CNN
F 1 "GND" H 4355 3577 50  0000 C CNN
F 2 "" H 4350 3750 50  0001 C CNN
F 3 "" H 4350 3750 50  0001 C CNN
	1    4350 3750
	1    0    0    -1  
$EndComp
Wire Wire Line
	4350 3750 4350 3600
Wire Wire Line
	4350 3600 4450 3600
Wire Wire Line
	4450 3000 4450 1800
Wire Wire Line
	4450 1800 4100 1800
Connection ~ 4100 1800
Wire Wire Line
	1700 3300 2700 3300
$Comp
L Device:Q_NMOS_GDS Q1
U 1 1 5D8C6AB8
P 6200 2750
F 0 "Q1" H 6406 2796 50  0000 L CNN
F 1 "Q_NMOS_GDS" H 6406 2705 50  0000 L CNN
F 2 "Package_TO_SOT_THT:TO-220-3_Vertical" H 6400 2850 50  0001 C CNN
F 3 "~" H 6200 2750 50  0001 C CNN
	1    6200 2750
	1    0    0    -1  
$EndComp
$Comp
L Device:Q_NMOS_GDS Q2
U 1 1 5D8C7517
P 6200 3600
F 0 "Q2" H 6406 3646 50  0000 L CNN
F 1 "Q_NMOS_GDS" H 6406 3555 50  0000 L CNN
F 2 "Package_TO_SOT_THT:TO-220-3_Vertical" H 6400 3700 50  0001 C CNN
F 3 "~" H 6200 3600 50  0001 C CNN
	1    6200 3600
	1    0    0    -1  
$EndComp
$Comp
L pspice:INDUCTOR L1
U 1 1 5D8C8258
P 8150 3150
F 0 "L1" H 8150 3365 50  0000 C CNN
F 1 "INDUCTOR" H 8150 3274 50  0000 C CNN
F 2 "Inductor_THT:L_Toroid_Vertical_L28.6mm_W14.3mm_P11.43mm_Bourns_5700" H 8150 3150 50  0001 C CNN
F 3 "~" H 8150 3150 50  0001 C CNN
	1    8150 3150
	1    0    0    -1  
$EndComp
Wire Wire Line
	6300 3150 6300 2950
Wire Wire Line
	6300 3150 6300 3400
Connection ~ 6300 3150
Wire Wire Line
	6000 3600 5050 3600
Wire Wire Line
	5050 3400 5800 3400
Wire Wire Line
	5800 3400 5800 2750
Wire Wire Line
	5800 2750 6000 2750
Wire Wire Line
	5050 3500 5150 3500
Wire Wire Line
	6050 3500 6050 3150
Wire Wire Line
	6050 3150 6300 3150
$Comp
L Device:C_Small C10
U 1 1 5D8D8EC3
P 5150 3200
F 0 "C10" H 5242 3246 50  0000 L CNN
F 1 "100n" H 5242 3155 50  0000 L CNN
F 2 "Capacitor_SMD:C_1206_3216Metric_Pad1.42x1.75mm_HandSolder" H 5150 3200 50  0001 C CNN
F 3 "~" H 5150 3200 50  0001 C CNN
	1    5150 3200
	1    0    0    -1  
$EndComp
Wire Wire Line
	5150 3500 5150 3300
Connection ~ 5150 3500
Wire Wire Line
	5150 3500 6050 3500
Wire Wire Line
	5150 3100 5150 3000
Wire Wire Line
	5150 3000 5050 3000
Wire Wire Line
	6300 3850 6300 3800
$Comp
L power:GND #PWR011
U 1 1 5D8ED34F
P 6300 3850
F 0 "#PWR011" H 6300 3600 50  0001 C CNN
F 1 "GND" H 6305 3677 50  0000 C CNN
F 2 "" H 6300 3850 50  0001 C CNN
F 3 "" H 6300 3850 50  0001 C CNN
	1    6300 3850
	1    0    0    -1  
$EndComp
$Comp
L Device:CP C13
U 1 1 5D8EE918
P 8550 3500
F 0 "C13" H 8668 3546 50  0000 L CNN
F 1 "1000u/50V" H 8668 3455 50  0000 L CNN
F 2 "Capacitor_THT:CP_Radial_D13.0mm_P5.00mm" H 8588 3350 50  0001 C CNN
F 3 "~" H 8550 3500 50  0001 C CNN
	1    8550 3500
	1    0    0    -1  
$EndComp
Wire Wire Line
	8550 3350 8550 3150
Wire Wire Line
	8550 3150 8400 3150
$Comp
L power:GND #PWR014
U 1 1 5D8F02B5
P 8550 3650
F 0 "#PWR014" H 8550 3400 50  0001 C CNN
F 1 "GND" H 8555 3477 50  0000 C CNN
F 2 "" H 8550 3650 50  0001 C CNN
F 3 "" H 8550 3650 50  0001 C CNN
	1    8550 3650
	1    0    0    -1  
$EndComp
$Comp
L Device:CP C14
U 1 1 5D8F0956
P 9300 3500
F 0 "C14" H 9418 3546 50  0000 L CNN
F 1 "1000u/50V" H 9418 3455 50  0000 L CNN
F 2 "Capacitor_THT:CP_Radial_D13.0mm_P5.00mm" H 9338 3350 50  0001 C CNN
F 3 "~" H 9300 3500 50  0001 C CNN
	1    9300 3500
	1    0    0    -1  
$EndComp
$Comp
L power:GND #PWR015
U 1 1 5D8F0C59
P 9300 3650
F 0 "#PWR015" H 9300 3400 50  0001 C CNN
F 1 "GND" H 9305 3477 50  0000 C CNN
F 2 "" H 9300 3650 50  0001 C CNN
F 3 "" H 9300 3650 50  0001 C CNN
	1    9300 3650
	1    0    0    -1  
$EndComp
Wire Wire Line
	9300 3350 9300 3150
Wire Wire Line
	9300 3150 8550 3150
Connection ~ 8550 3150
$Comp
L Connector:Conn_01x02_Male J4
U 1 1 5D8F40FF
P 10750 3250
F 0 "J4" H 10722 3132 50  0000 R CNN
F 1 "VOUT" H 10722 3223 50  0000 R CNN
F 2 "TerminalBlock:TerminalBlock_bornier-2_P5.08mm" H 10750 3250 50  0001 C CNN
F 3 "~" H 10750 3250 50  0001 C CNN
	1    10750 3250
	-1   0    0    1   
$EndComp
Connection ~ 9300 3150
$Comp
L power:GND #PWR017
U 1 1 5D8FA114
P 10500 3350
F 0 "#PWR017" H 10500 3100 50  0001 C CNN
F 1 "GND" H 10505 3177 50  0000 C CNN
F 2 "" H 10500 3350 50  0001 C CNN
F 3 "" H 10500 3350 50  0001 C CNN
	1    10500 3350
	1    0    0    -1  
$EndComp
$Comp
L Connector:Conn_01x02_Male J2
U 1 1 5D90A51E
P 6750 1200
F 0 "J2" H 6722 1082 50  0000 R CNN
F 1 "VIN" H 6722 1173 50  0000 R CNN
F 2 "TerminalBlock:TerminalBlock_bornier-2_P5.08mm" H 6750 1200 50  0001 C CNN
F 3 "~" H 6750 1200 50  0001 C CNN
	1    6750 1200
	-1   0    0    1   
$EndComp
Wire Wire Line
	6300 1100 6550 1100
Wire Wire Line
	6300 1100 6300 1650
$Comp
L power:GND #PWR013
U 1 1 5D90CD2E
P 6550 1200
F 0 "#PWR013" H 6550 950 50  0001 C CNN
F 1 "GND" H 6555 1027 50  0000 C CNN
F 2 "" H 6550 1200 50  0001 C CNN
F 3 "" H 6550 1200 50  0001 C CNN
	1    6550 1200
	1    0    0    -1  
$EndComp
$Comp
L Device:CP C12
U 1 1 5D90F396
P 6500 1950
F 0 "C12" H 6618 1996 50  0000 L CNN
F 1 "1000u/50V" H 6618 1905 50  0000 L CNN
F 2 "Capacitor_THT:CP_Radial_D13.0mm_P5.00mm" H 6538 1800 50  0001 C CNN
F 3 "~" H 6500 1950 50  0001 C CNN
	1    6500 1950
	1    0    0    -1  
$EndComp
$Comp
L power:GND #PWR012
U 1 1 5D90F39C
P 6500 2100
F 0 "#PWR012" H 6500 1850 50  0001 C CNN
F 1 "GND" H 6505 1927 50  0000 C CNN
F 2 "" H 6500 2100 50  0001 C CNN
F 3 "" H 6500 2100 50  0001 C CNN
	1    6500 2100
	1    0    0    -1  
$EndComp
Wire Wire Line
	6500 1800 6500 1650
Wire Wire Line
	6500 1650 6300 1650
Connection ~ 6300 1650
Wire Wire Line
	6300 1650 6300 2550
$Comp
L Connector:Conn_01x02_Male J1
U 1 1 5D91B463
P 1150 6550
F 0 "J1" H 1258 6731 50  0000 C CNN
F 1 "V_AUX" H 1258 6640 50  0000 C CNN
F 2 "Connector_Molex:Molex_KK-254_AE-6410-02A_1x02_P2.54mm_Vertical" H 1150 6550 50  0001 C CNN
F 3 "~" H 1150 6550 50  0001 C CNN
	1    1150 6550
	1    0    0    -1  
$EndComp
$Comp
L power:GND #PWR01
U 1 1 5D91BAF0
P 1750 6600
F 0 "#PWR01" H 1750 6350 50  0001 C CNN
F 1 "GND" H 1755 6427 50  0000 C CNN
F 2 "" H 1750 6600 50  0001 C CNN
F 3 "" H 1750 6600 50  0001 C CNN
	1    1750 6600
	1    0    0    -1  
$EndComp
Wire Wire Line
	1350 6550 1550 6550
Wire Wire Line
	1550 6550 1550 6150
Wire Wire Line
	1550 6150 2050 6150
Wire Wire Line
	2050 6150 2050 6300
Wire Wire Line
	1350 6650 1550 6650
Wire Wire Line
	1550 6650 1550 7050
Wire Wire Line
	1550 7050 2050 7050
Wire Wire Line
	2050 7050 2050 6900
$Comp
L Device:CP C5
U 1 1 5D9238B5
P 2550 6900
F 0 "C5" H 2668 6946 50  0000 L CNN
F 1 "1500u/25V" H 2668 6855 50  0000 L CNN
F 2 "Capacitor_THT:CP_Radial_D12.5mm_P5.00mm" H 2588 6750 50  0001 C CNN
F 3 "~" H 2550 6900 50  0001 C CNN
	1    2550 6900
	1    0    0    -1  
$EndComp
Wire Wire Line
	2550 6750 2550 6600
Wire Wire Line
	2550 6600 2350 6600
$Comp
L power:GND #PWR02
U 1 1 5D926248
P 2550 7050
F 0 "#PWR02" H 2550 6800 50  0001 C CNN
F 1 "GND" H 2555 6877 50  0000 C CNN
F 2 "" H 2550 7050 50  0001 C CNN
F 3 "" H 2550 7050 50  0001 C CNN
	1    2550 7050
	1    0    0    -1  
$EndComp
$Comp
L Regulator_Linear:L7812 U2
U 1 1 5D926CAC
P 3650 6600
F 0 "U2" H 3650 6842 50  0000 C CNN
F 1 "L7812" H 3650 6751 50  0000 C CNN
F 2 "Package_TO_SOT_SMD:TO-252-2" H 3675 6450 50  0001 L CIN
F 3 "http://www.st.com/content/ccc/resource/technical/document/datasheet/41/4f/b3/b0/12/d4/47/88/CD00000444.pdf/files/CD00000444.pdf/jcr:content/translations/en.CD00000444.pdf" H 3650 6550 50  0001 C CNN
	1    3650 6600
	1    0    0    -1  
$EndComp
Wire Wire Line
	3350 6600 3200 6600
Connection ~ 2550 6600
$Comp
L Device:C_Small C6
U 1 1 5D92B8DF
P 3200 6900
F 0 "C6" H 3292 6946 50  0000 L CNN
F 1 "100n" H 3292 6855 50  0000 L CNN
F 2 "Capacitor_SMD:C_1206_3216Metric_Pad1.42x1.75mm_HandSolder" H 3200 6900 50  0001 C CNN
F 3 "~" H 3200 6900 50  0001 C CNN
	1    3200 6900
	1    0    0    -1  
$EndComp
$Comp
L power:GND #PWR03
U 1 1 5D92D19D
P 3200 7000
F 0 "#PWR03" H 3200 6750 50  0001 C CNN
F 1 "GND" H 3205 6827 50  0000 C CNN
F 2 "" H 3200 7000 50  0001 C CNN
F 3 "" H 3200 7000 50  0001 C CNN
	1    3200 7000
	1    0    0    -1  
$EndComp
Wire Wire Line
	3200 6800 3200 6600
Connection ~ 3200 6600
Wire Wire Line
	3200 6600 2550 6600
$Comp
L power:GND #PWR05
U 1 1 5D92F97A
P 3650 6900
F 0 "#PWR05" H 3650 6650 50  0001 C CNN
F 1 "GND" H 3655 6727 50  0000 C CNN
F 2 "" H 3650 6900 50  0001 C CNN
F 3 "" H 3650 6900 50  0001 C CNN
	1    3650 6900
	1    0    0    -1  
$EndComp
$Comp
L Device:CP_Small C8
U 1 1 5D92FF4C
P 4150 6800
F 0 "C8" H 4238 6846 50  0000 L CNN
F 1 "15u" H 4238 6755 50  0000 L CNN
F 2 "Capacitor_THT:CP_Radial_D5.0mm_P2.00mm" H 4150 6800 50  0001 C CNN
F 3 "~" H 4150 6800 50  0001 C CNN
	1    4150 6800
	1    0    0    -1  
$EndComp
$Comp
L power:GND #PWR06
U 1 1 5D930220
P 4150 6900
F 0 "#PWR06" H 4150 6650 50  0001 C CNN
F 1 "GND" H 4155 6727 50  0000 C CNN
F 2 "" H 4150 6900 50  0001 C CNN
F 3 "" H 4150 6900 50  0001 C CNN
	1    4150 6900
	1    0    0    -1  
$EndComp
Wire Wire Line
	4150 6700 4150 6600
Wire Wire Line
	4150 6600 3950 6600
Text GLabel 4150 6400 1    50   Input ~ 0
+12V
Wire Wire Line
	4150 6400 4150 6600
Connection ~ 4150 6600
Text GLabel 3850 1550 1    50   Input ~ 0
+12V
Wire Wire Line
	3850 1550 3850 1800
Text Notes 1600 3800 0    50   ~ 0
100kHz
$Comp
L Device:C_Small C4
U 1 1 5D954CB6
P 1950 2800
F 0 "C4" V 2150 2750 50  0000 L CNN
F 1 "10n" V 2050 2700 50  0000 L CNN
F 2 "Capacitor_THT:C_Rect_L7.0mm_W2.0mm_P5.00mm" H 1950 2800 50  0001 C CNN
F 3 "~" H 1950 2800 50  0001 C CNN
	1    1950 2800
	0    1    1    0   
$EndComp
Wire Wire Line
	2050 2800 2150 2800
Wire Wire Line
	1800 3200 1800 2800
Wire Wire Line
	1800 2800 1850 2800
Wire Wire Line
	1800 3200 2700 3200
Wire Wire Line
	1700 1600 1700 1700
Wire Wire Line
	2450 2800 2550 2800
Connection ~ 1700 1700
Wire Wire Line
	1700 1700 1700 2300
Wire Wire Line
	2550 2050 2550 2500
Connection ~ 2550 2800
Wire Wire Line
	2550 2800 2700 2800
$Comp
L Device:R R4
U 1 1 5D987B34
P 2100 2500
F 0 "R4" V 2300 2400 50  0000 L CNN
F 1 "1M" V 2200 2400 50  0000 L CNN
F 2 "Resistor_THT:R_Axial_DIN0204_L3.6mm_D1.6mm_P5.08mm_Horizontal" V 2030 2500 50  0001 C CNN
F 3 "~" H 2100 2500 50  0001 C CNN
	1    2100 2500
	0    1    1    0   
$EndComp
Wire Wire Line
	2250 2500 2550 2500
Connection ~ 2550 2500
Wire Wire Line
	2550 2500 2550 2800
Wire Wire Line
	1950 2500 1800 2500
Wire Wire Line
	1800 2500 1800 2800
Connection ~ 1800 2800
Wire Wire Line
	2150 2050 2550 2050
Wire Wire Line
	9300 3150 9900 3150
$Comp
L Device:R_POT RV3
U 1 1 5D99C39F
P 9900 4300
F 0 "RV3" H 9830 4254 50  0000 R CNN
F 1 "10k" H 9830 4345 50  0000 R CNN
F 2 "Connector_Molex:Molex_KK-254_AE-6410-03A_1x03_P2.54mm_Vertical" H 9900 4300 50  0001 C CNN
F 3 "~" H 9900 4300 50  0001 C CNN
	1    9900 4300
	-1   0    0    1   
$EndComp
$Comp
L power:GND #PWR0107
U 1 1 5D9A0781
P 9900 4450
F 0 "#PWR0107" H 9900 4200 50  0001 C CNN
F 1 "GND" H 9905 4277 50  0000 C CNN
F 2 "" H 9900 4450 50  0001 C CNN
F 3 "" H 9900 4450 50  0001 C CNN
	1    9900 4450
	1    0    0    -1  
$EndComp
Wire Wire Line
	9900 4150 9900 3150
Wire Wire Line
	3200 1800 3850 1800
$Comp
L Device:D_Bridge_+-AA D1
U 1 1 5D91DEF2
P 2050 6600
F 0 "D1" H 2300 6700 50  0000 L CNN
F 1 "D_Bridge_+AA-" H 2394 6555 50  0001 L CNN
F 2 "Diode_THT:Diode_Bridge_DIP-4_W7.62mm_P5.08mm" H 2050 6600 50  0001 C CNN
F 3 "~" H 2050 6600 50  0001 C CNN
	1    2050 6600
	1    0    0    -1  
$EndComp
Wire Wire Line
	10500 3350 10500 3250
Wire Wire Line
	10500 3250 10550 3250
Wire Wire Line
	2700 2900 2650 2900
Wire Wire Line
	2650 2900 2650 750 
$Comp
L Device:R R6
U 1 1 5D99AF8E
P 5150 1000
F 0 "R6" H 5080 954 50  0000 R CNN
F 1 "1k" H 5080 1045 50  0000 R CNN
F 2 "Resistor_THT:R_Axial_DIN0204_L3.6mm_D1.6mm_P5.08mm_Horizontal" V 5080 1000 50  0001 C CNN
F 3 "~" H 5150 1000 50  0001 C CNN
	1    5150 1000
	-1   0    0    1   
$EndComp
$Comp
L Device:CP C7
U 1 1 5D9B010C
P 5500 1000
F 0 "C7" H 5618 1046 50  0000 L CNN
F 1 "33u" H 5618 955 50  0000 L CNN
F 2 "Capacitor_THT:CP_Radial_D5.0mm_P2.50mm" H 5538 850 50  0001 C CNN
F 3 "~" H 5500 1000 50  0001 C CNN
	1    5500 1000
	1    0    0    -1  
$EndComp
$Comp
L power:GND #PWR0108
U 1 1 5D9B4A4D
P 5500 1150
F 0 "#PWR0108" H 5500 900 50  0001 C CNN
F 1 "GND" H 5505 977 50  0000 C CNN
F 2 "" H 5500 1150 50  0001 C CNN
F 3 "" H 5500 1150 50  0001 C CNN
	1    5500 1150
	1    0    0    -1  
$EndComp
Wire Wire Line
	9900 3150 10550 3150
Connection ~ 9900 3150
Text Notes 7350 3300 0    50   ~ 0
5A/5mA
Wire Wire Line
	7200 2950 7100 2950
$Comp
L Device:D_Schottky D2
U 1 1 5D9816FE
P 7800 2400
F 0 "D2" V 7800 2479 50  0000 L CNN
F 1 "D_Schottky" V 7845 2479 50  0001 L CNN
F 2 "Diode_THT:D_T-1_P5.08mm_Horizontal" H 7800 2400 50  0001 C CNN
F 3 "~" H 7800 2400 50  0001 C CNN
	1    7800 2400
	0    1    1    0   
$EndComp
Wire Wire Line
	6300 3150 7300 3150
Wire Wire Line
	7700 3150 7900 3150
$Comp
L power:GND #PWR0109
U 1 1 5D9EFC19
P 7100 3250
F 0 "#PWR0109" H 7100 3000 50  0001 C CNN
F 1 "GND" H 7105 3077 50  0000 C CNN
F 2 "" H 7100 3250 50  0001 C CNN
F 3 "" H 7100 3250 50  0001 C CNN
	1    7100 3250
	1    0    0    -1  
$EndComp
Wire Wire Line
	5500 850  5500 750 
Wire Wire Line
	5150 850  5150 750 
Wire Wire Line
	5150 750  5500 750 
Connection ~ 5500 750 
$Comp
L power:GND #PWR0110
U 1 1 5DA1BAF9
P 5150 1150
F 0 "#PWR0110" H 5150 900 50  0001 C CNN
F 1 "GND" H 5155 977 50  0000 C CNN
F 2 "" H 5150 1150 50  0001 C CNN
F 3 "" H 5150 1150 50  0001 C CNN
	1    5150 1150
	1    0    0    -1  
$EndComp
Wire Wire Line
	7100 3250 7100 2950
Wire Wire Line
	7800 2950 7800 2550
Wire Wire Line
	7800 750  7800 2250
Wire Wire Line
	5500 750  7800 750 
$Comp
L My_Library:CT T1
U 1 1 5DA59520
P 7500 2950
F 0 "T1" H 7500 2769 50  0000 C CNN
F 1 "CT" H 7500 2860 50  0000 C CNN
F 2 "MyLibrary:Current_Transformer" H 7500 2950 50  0001 C CNN
F 3 "https://www.coilcraft.com/pdfs/cst.pdf" H 7500 2950 50  0001 C CNN
	1    7500 2950
	1    0    0    1   
$EndComp
Wire Wire Line
	2550 4300 9750 4300
Wire Wire Line
	5150 750  2650 750 
Connection ~ 5150 750 
$Comp
L Device:C_Small C9
U 1 1 5DAA94F9
P 4500 6800
F 0 "C9" H 4592 6846 50  0000 L CNN
F 1 "100n" H 4592 6755 50  0000 L CNN
F 2 "Capacitor_THT:C_Rect_L7.0mm_W2.0mm_P5.00mm" H 4500 6800 50  0001 C CNN
F 3 "~" H 4500 6800 50  0001 C CNN
	1    4500 6800
	1    0    0    -1  
$EndComp
Wire Wire Line
	4150 6600 4500 6600
Wire Wire Line
	4500 6600 4500 6700
$Comp
L power:GND #PWR0111
U 1 1 5DAAE2CA
P 4500 6900
F 0 "#PWR0111" H 4500 6650 50  0001 C CNN
F 1 "GND" H 4505 6727 50  0000 C CNN
F 2 "" H 4500 6900 50  0001 C CNN
F 3 "" H 4500 6900 50  0001 C CNN
	1    4500 6900
	1    0    0    -1  
$EndComp
$EndSCHEMATC
